(footprint "SMCR" (version 20221018) (generator pcbnew)
  (layer "F.Cu")
  (fp_text reference "REF**" (at 0 0) (layer "F.SilkS")
      (effects (font (size 1.27 1.27) (thickness 0.15)))
    (tstamp 636905c4-6993-4732-9401-74236f8724e9)
  )
  (fp_text value "" (at 0 0) (layer "F.Fab")
      (effects (font (size 1.27 1.27) (thickness 0.15)))
    (tstamp d7628438-fe4e-43a0-a003-68f5d813b6c9)
  )
  (fp_text user "+" (at 10.16 2.54) (layer "F.SilkS")
      (effects (font (size 1.1684 1.1684) (thickness 0.1016)) (justify left bottom))
    (tstamp 41d65f25-2995-4cf1-bd5d-55676ea806ca)
  )
  (fp_text user "SMCR" (at 1.27 -1.905) (layer "F.SilkS")
      (effects (font (size 1.1684 1.1684) (thickness 0.1016)) (justify left bottom))
    (tstamp 858a5786-26d8-4b0d-a9f5-fecc477b2d2f)
  )
  (fp_line (start 0 -3.81) (end 11.43 -3.81)
    (stroke (width 0.127) (type solid)) (layer "F.SilkS") (tstamp 5d43ac40-0551-4942-8de6-cd5c6a8dce74))
  (fp_line (start 1.27 0) (end 5.08 0)
    (stroke (width 0.127) (type solid)) (layer "F.SilkS") (tstamp 7d68a865-6eaa-4af9-863d-b6c04a2e20a5))
  (fp_line (start 6.096 -1.143) (end 6.096 1.27)
    (stroke (width 0.127) (type solid)) (layer "F.SilkS") (tstamp 854f8cf1-8e20-4c75-916e-8010322568b0))
  (fp_line (start 6.096 1.27) (end 6.477 1.27)
    (stroke (width 0.127) (type solid)) (layer "F.SilkS") (tstamp f60c334e-ce49-4072-8564-6d11fcdfac58))
  (fp_line (start 6.477 -1.143) (end 6.096 -1.143)
    (stroke (width 0.127) (type solid)) (layer "F.SilkS") (tstamp fd543be6-2bc1-4491-afb8-8624a2cd4f24))
  (fp_line (start 6.477 0) (end 10.16 0)
    (stroke (width 0.127) (type solid)) (layer "F.SilkS") (tstamp d918b7e2-31bf-4fc8-b255-07925e472b85))
  (fp_line (start 6.477 1.27) (end 6.477 -1.143)
    (stroke (width 0.127) (type solid)) (layer "F.SilkS") (tstamp b323ba17-8d4b-4bb8-be62-9af64fd0900b))
  (fp_line (start 11.43 3.81) (end 0 3.81)
    (stroke (width 0.127) (type solid)) (layer "F.SilkS") (tstamp d4372507-becd-42a9-a59b-279731fa3b6e))
  (fp_arc (start 0 3.81) (mid -3.81 0) (end 0 -3.81)
    (stroke (width 0.127) (type solid)) (layer "F.SilkS") (tstamp 22fc38c2-f246-4b63-ba4a-1aa50ac37582))
  (fp_arc (start 11.43 -3.81) (mid 15.24 0) (end 11.43 3.81)
    (stroke (width 0.127) (type solid)) (layer "F.SilkS") (tstamp 509b6ae8-0154-4551-b629-dcaa1b12cf6b))
  (fp_poly
    (pts
      (xy 5.08 1.397)
      (xy 5.461 1.397)
      (xy 5.461 -1.27)
      (xy 5.08 -1.27)
    )

    (stroke (width 0) (type default)) (fill solid) (layer "F.SilkS") (tstamp 76f273a1-fd9b-4a95-884f-eeab308d1d50))
  (pad "+" thru_hole roundrect (at 11.43 0) (size 1.4224 1.4224) (drill 0.6) (layers "*.Cu" "*.Mask") (roundrect_rratio 0.25)
    (chamfer_ratio 0.2928932188) (chamfer top_left top_right bottom_left bottom_right)
    (solder_mask_margin 0.1016) (thermal_bridge_angle 45) (tstamp 146853e1-78bc-4a8b-92b0-140352e18894))
  (pad "-" thru_hole roundrect (at 0 0) (size 1.4224 1.4224) (drill 0.6) (layers "*.Cu" "*.Mask") (roundrect_rratio 0.25)
    (chamfer_ratio 0.2928932188) (chamfer top_left top_right bottom_left bottom_right)
    (solder_mask_margin 0.1016) (thermal_bridge_angle 45) (tstamp aab26c79-f5b0-4155-9f65-766da33995e1))
)
