(footprint "SOD-123" (version 20221018) (generator pcbnew)
  (layer "F.Cu")
  (fp_text reference "REF**" (at -1.1 -1) (layer "F.SilkS")
      (effects (font (size 0.373888 0.373888) (thickness 0.032512)) (justify left bottom))
    (tstamp 13062e08-6326-46ca-a8a3-867228ea49c6)
  )
  (fp_text value "SOD-123" (at -1.1 1.284) (layer "F.Fab")
      (effects (font (size 0.373888 0.373888) (thickness 0.032512)) (justify left bottom))
    (tstamp f9a86003-576b-45ad-94e1-6383feee7afd)
  )
  (fp_line (start -1.778 -0.762) (end 1.778 -0.762)
    (stroke (width 0.127) (type solid)) (layer "F.SilkS") (tstamp 413c3961-48ee-4b3c-927f-bf32ad6a38ab))
  (fp_line (start -1.778 0.762) (end -1.778 -0.762)
    (stroke (width 0.127) (type solid)) (layer "F.SilkS") (tstamp 2207b240-cbcf-43ec-9bbf-54a9e8d38403))
  (fp_line (start 1.778 -0.762) (end 1.778 0.762)
    (stroke (width 0.127) (type solid)) (layer "F.SilkS") (tstamp 50fdf462-0246-4b67-a33d-6641bc8ec75d))
  (fp_line (start 1.778 0.762) (end -1.778 0.762)
    (stroke (width 0.127) (type solid)) (layer "F.SilkS") (tstamp 84616a47-2d10-42b0-a6e5-106eae793a9f))
  (fp_line (start -1 -0.7) (end 1 -0.7)
    (stroke (width 0.1524) (type solid)) (layer "F.Fab") (tstamp 2fd92e10-bd3a-46ed-945d-468a508c3a05))
  (fp_line (start -1 0.7) (end -1 -0.7)
    (stroke (width 0.1524) (type solid)) (layer "F.Fab") (tstamp 2d4ad32c-8cb6-4894-9f4e-f0cbffa387de))
  (fp_line (start -0.5 0) (end 0.1 -0.4)
    (stroke (width 0.1524) (type solid)) (layer "F.Fab") (tstamp 0528acd6-7b9b-431a-8e8b-db5163e133ff))
  (fp_line (start 0.1 -0.4) (end 0.1 0.4)
    (stroke (width 0.1524) (type solid)) (layer "F.Fab") (tstamp 3d75ab2e-0ab2-45ec-9732-a7e2e0fc84e7))
  (fp_line (start 0.1 0.4) (end -0.5 0)
    (stroke (width 0.1524) (type solid)) (layer "F.Fab") (tstamp ca1b4c09-2563-4893-a7b3-2ebb73a13502))
  (fp_line (start 1 -0.7) (end 1 0.7)
    (stroke (width 0.1524) (type solid)) (layer "F.Fab") (tstamp c9794d7c-77b0-4a54-8b9c-38af28dc4347))
  (fp_line (start 1 0.7) (end -1 0.7)
    (stroke (width 0.1524) (type solid)) (layer "F.Fab") (tstamp e3068860-309b-48f8-a525-566496996c0a))
  (fp_poly
    (pts
      (xy -0.7 0.7)
      (xy -0.5 0.7)
      (xy -0.5 -0.7)
      (xy -0.7 -0.7)
    )

    (stroke (width 0) (type default)) (fill solid) (layer "F.Fab") (tstamp e24f761d-0d8c-4ee4-8783-af60be74ec5c))
  (pad "A" smd rect (at 1.85 0) (size 1.2 0.7) (layers "F.Cu" "F.Paste" "F.Mask")
    (solder_mask_margin 0.1016) (thermal_bridge_angle 45) (tstamp c9e9c766-e0f3-4867-a112-a34012a20b30))
  (pad "C" smd rect (at -1.85 0) (size 1.2 0.7) (layers "F.Cu" "F.Paste" "F.Mask")
    (solder_mask_margin 0.1016) (thermal_bridge_angle 45) (tstamp f6a57a57-e5a7-4209-b640-58b213b6addb))
)
